…
defects_counts
```

    ## # A tibble: 27 × 18
    ## # Groups:   screen, row, column, cell_line [27]
    ##    screen      row column cell_…¹ marker n_cells cyto_…² cyto_…³ nuc_p…⁴ nuc_m…⁵
    ##    <chr>     <dbl>  <dbl> <fct>   <chr>    <int>   <int>   <int>   <int>   <int>
    ##  1 180129-4…    11      4 WT      SUN2       363      26       0      56      40
    ##  2 180129-4…    12      4 WT      SUN2       347      12       2      30      63
    ##  3 180129-4…    13      4 WT      SUN2       383      21       0      74      54
    ##  4 180129-4…    11     14 HGPS1   SUN2       252      21       4      33      36
    ##  5 180129-4…    12     14 HGPS1   SUN2       200      13       1      49      27
    ##  6 180129-4…    13     14 HGPS1   SUN2       168      13       1      80      15
    ##  7 180129-4…    11     19 HGPS2   SUN2       363      31       0      71      47
    ##  8 180129-4…    12     19 HGPS2   SUN2       331      37       1      94      36
    ##  9 180129-4…    13     19 HGPS2   SUN2       314      33       3      87      51
    ## 10 180205-4…    11      4 WT      SUN2        65       9      10       5      10
    ## # … with 17 more rows, 8 more variables: sum_plus_def <int>,
    ## #   sum_minus_def <int>, cyto_plus_norm <int>, cyto_minus_norm <int>,
    ## #   nuc_plus_norm <int>, nuc_minus_norm <int>, sum_plus_norm <int>,
    ## #   sum_minus_norm <int>, and abbreviated variable names ¹​cell_line,
    ## #   ²​cyto_plus_def, ³​cyto_minus_def, ⁴​nuc_plus_def, ⁵​nuc_minus_def
…
``` r
defects_counts_long <- defects_counts %>%
  select(-n_cells) %>%
  group_by(marker, cell_line) %>%
  summarise(across(cyto_plus_def:sum_minus_norm, # Take the mean of all the wells in all the technical and biological replicates
              ~ mean(.x, na.rm = TRUE))) %>% 
  pivot_longer(cols = cyto_plus_def:sum_minus_norm,
               names_pattern = "(.*_.*)_(.*)",
               names_to = c("type", "quality"),
               values_to = "count")

defects_counts_long
```

    ## # A tibble: 36 × 5
    ## # Groups:   marker [1]
    ##    marker cell_line type       quality count
    ##    <chr>  <fct>     <chr>      <chr>   <dbl>
    ##  1 SUN2   WT        cyto_plus  def      21.3
    ##  2 SUN2   WT        cyto_minus def      12.8
    ##  3 SUN2   WT        nuc_plus   def      36.1
    ##  4 SUN2   WT        nuc_minus  def      35.9
    ##  5 SUN2   WT        sum_plus   def      35.8
    ##  6 SUN2   WT        sum_minus  def      36.4
    ##  7 SUN2   WT        cyto_plus  norm    229. 
    ##  8 SUN2   WT        cyto_minus norm    238. 
    ##  9 SUN2   WT        nuc_plus   norm    214. 
    ## 10 SUN2   WT        nuc_minus  norm    215. 
    ## # … with 26 more rows
…
