…
defects_counts
```

    ## # A tibble: 81 × 18
    ## # Groups:   screen, row, column, cell_line [81]
    ##    screen      row column cell_…¹ marker n_cells cyto_…² cyto_…³ nuc_p…⁴ nuc_m…⁵
    ##    <chr>     <dbl>  <dbl> <fct>   <chr>    <int>   <int>   <int>   <int>   <int>
    ##  1 220303-4…    11      2 WT1     Calne…     132      10       5       0       3
    ##  2 220303-4…    12      2 WT1     Calne…     169      12       6       9       1
    ##  3 220303-4…    13      2 WT1     Calne…     156      13       7      26       2
    ##  4 220303-4…    11      4 WT2     Calne…     173      51      12      33       6
    ##  5 220303-4…    12      4 WT2     Calne…     126       6      11      14       3
    ##  6 220303-4…    13      4 WT2     Calne…     148      13       5      25       0
    ##  7 220303-4…    11      6 WT3     Calne…     177      49       3      28       1
    ##  8 220303-4…    12      6 WT3     Calne…     202      50       4      21       6
    ##  9 220303-4…    13      6 WT3     Calne…     194      61       2      28       2
    ## 10 220303-4…    11      8 WT4     Calne…     307     210       3     143       2
    ## # … with 71 more rows, 8 more variables: sum_plus_def <int>,
    ## #   sum_minus_def <int>, cyto_plus_norm <int>, cyto_minus_norm <int>,
    ## #   nuc_plus_norm <int>, nuc_minus_norm <int>, sum_plus_norm <int>,
    ## #   sum_minus_norm <int>, and abbreviated variable names ¹​cell_line,
    ## #   ²​cyto_plus_def, ³​cyto_minus_def, ⁴​nuc_plus_def, ⁵​nuc_minus_def
…
``` r
defects_counts_long <- defects_counts %>%
  select(-n_cells) %>%
  group_by(marker, cell_line) %>%
  summarise(across(cyto_plus_def:sum_minus_norm, # Take the mean of all the wells in all the technical and biological replicates
              ~ mean(.x, na.rm = TRUE))) %>% 
  pivot_longer(cols = cyto_plus_def:sum_minus_norm,
               names_pattern = "(.*_.*)_(.*)",
               names_to = c("type", "quality"),
               values_to = "count")

defects_counts_long
```

    ## # A tibble: 108 × 5
    ## # Groups:   marker [1]
    ##    marker   cell_line type       quality  count
    ##    <chr>    <fct>     <chr>      <chr>    <dbl>
    ##  1 Calnexin WT1       cyto_plus  def      12   
    ##  2 Calnexin WT1       cyto_minus def       6   
    ##  3 Calnexin WT1       nuc_plus   def      10.7 
    ##  4 Calnexin WT1       nuc_minus  def       4.78
    ##  5 Calnexin WT1       sum_plus   def      13   
    ##  6 Calnexin WT1       sum_minus  def       5.67
    ##  7 Calnexin WT1       cyto_plus  norm    138.  
    ##  8 Calnexin WT1       cyto_minus norm    144.  
    ##  9 Calnexin WT1       nuc_plus   norm    139.  
    ## 10 Calnexin WT1       nuc_minus  norm    145.  
    ## # … with 98 more rows
…
