…
defects_counts
```

    ## # A tibble: 27 × 18
    ## # Groups:   screen, row, column, cell_line [27]
    ##    screen      row column cell_…¹ marker n_cells cyto_…² cyto_…³ nuc_p…⁴ nuc_m…⁵
    ##    <chr>     <dbl>  <dbl> <fct>   <chr>    <int>   <int>   <int>   <int>   <int>
    ##  1 180124-4…     2      2 WT      GRP94      320      31      11      21       6
    ##  2 180124-4…     3      2 WT      GRP94      241      20       9      20      10
    ##  3 180124-4…     4      2 WT      GRP94      371      33      12      24      11
    ##  4 180124-4…     2     12 HGPS1   GRP94      183      45       1      51       6
    ##  5 180124-4…     3     12 HGPS1   GRP94      164      53       1      50       7
    ##  6 180124-4…     4     12 HGPS1   GRP94      172      35      14      49      10
    ##  7 180124-4…     2     17 HGPS2   GRP94      185      45       4      52      18
    ##  8 180124-4…     3     17 HGPS2   GRP94      250      76       8      34      38
    ##  9 180124-4…     4     17 HGPS2   GRP94      206      60      10      55      16
    ## 10 180129-4…     2      2 WT      GRP94      443      31      21      13      18
    ## # … with 17 more rows, 8 more variables: sum_plus_def <int>,
    ## #   sum_minus_def <int>, cyto_plus_norm <int>, cyto_minus_norm <int>,
    ## #   nuc_plus_norm <int>, nuc_minus_norm <int>, sum_plus_norm <int>,
    ## #   sum_minus_norm <int>, and abbreviated variable names ¹​cell_line,
    ## #   ²​cyto_plus_def, ³​cyto_minus_def, ⁴​nuc_plus_def, ⁵​nuc_minus_def
…
``` r
defects_counts_long <- defects_counts %>%
  select(-n_cells) %>%
  group_by(marker, cell_line) %>%
  summarise(across(cyto_plus_def:sum_minus_norm, # Take the mean of all the wells in all the technical and biological replicates
              ~ mean(.x, na.rm = TRUE))) %>% 
  pivot_longer(cols = cyto_plus_def:sum_minus_norm,
               names_pattern = "(.*_.*)_(.*)",
               names_to = c("type", "quality"),
               values_to = "count")

defects_counts_long
```

    ## # A tibble: 36 × 5
    ## # Groups:   marker [1]
    ##    marker cell_line type       quality count
    ##    <chr>  <fct>     <chr>      <chr>   <dbl>
    ##  1 GRP94  WT        cyto_plus  def      36.7
    ##  2 GRP94  WT        cyto_minus def      22.3
    ##  3 GRP94  WT        nuc_plus   def      35.3
    ##  4 GRP94  WT        nuc_minus  def      17.2
    ##  5 GRP94  WT        sum_plus   def      35.7
    ##  6 GRP94  WT        sum_minus  def      23.6
    ##  7 GRP94  WT        cyto_plus  norm    433. 
    ##  8 GRP94  WT        cyto_minus norm    448. 
    ##  9 GRP94  WT        nuc_plus   norm    435. 
    ## 10 GRP94  WT        nuc_minus  norm    453. 
    ## # … with 26 more rows
…
