…
defects_counts
```

    ## # A tibble: 27 × 18
    ## # Groups:   screen, row, column, cell_line [27]
    ##    screen      row column cell_…¹ marker n_cells cyto_…² cyto_…³ nuc_p…⁴ nuc_m…⁵
    ##    <chr>     <dbl>  <dbl> <fct>   <chr>    <int>   <int>   <int>   <int>   <int>
    ##  1 180124-4…    11      2 WT      PDI        388      33      12      22       5
    ##  2 180124-4…    12      2 WT      PDI        403      34       9      24       2
    ##  3 180124-4…    13      2 WT      PDI        367      30       2      49       1
    ##  4 180124-4…    11     12 HGPS1   PDI        235      55       1      17       7
    ##  5 180124-4…    12     12 HGPS1   PDI        174      31       7      12       0
    ##  6 180124-4…    13     12 HGPS1   PDI        170      12      27      12      20
    ##  7 180124-4…    11     17 HGPS2   PDI        256      67       6      18      23
    ##  8 180124-4…    12     17 HGPS2   PDI        221      30       7      10      15
    ##  9 180124-4…    13     17 HGPS2   PDI        236      23      19      10      33
    ## 10 180129-4…    11      2 WT      PDI        423      37      26      34       3
    ## # … with 17 more rows, 8 more variables: sum_plus_def <int>,
    ## #   sum_minus_def <int>, cyto_plus_norm <int>, cyto_minus_norm <int>,
    ## #   nuc_plus_norm <int>, nuc_minus_norm <int>, sum_plus_norm <int>,
    ## #   sum_minus_norm <int>, and abbreviated variable names ¹​cell_line,
    ## #   ²​cyto_plus_def, ³​cyto_minus_def, ⁴​nuc_plus_def, ⁵​nuc_minus_def
…
``` r
defects_counts_long <- defects_counts %>%
  select(-n_cells) %>%
  group_by(marker, cell_line) %>%
  summarise(across(cyto_plus_def:sum_minus_norm, # Take the mean of all the wells in all the technical and biological replicates
              ~ mean(.x, na.rm = TRUE))) %>% 
  pivot_longer(cols = cyto_plus_def:sum_minus_norm,
               names_pattern = "(.*_.*)_(.*)",
               names_to = c("type", "quality"),
               values_to = "count")

defects_counts_long
```

    ## # A tibble: 36 × 5
    ## # Groups:   marker [1]
    ##    marker cell_line type       quality  count
    ##    <chr>  <fct>     <chr>      <chr>    <dbl>
    ##  1 PDI    WT        cyto_plus  def      38.1 
    ##  2 PDI    WT        cyto_minus def      24.4 
    ##  3 PDI    WT        nuc_plus   def      38.4 
    ##  4 PDI    WT        nuc_minus  def       6.56
    ##  5 PDI    WT        sum_plus   def      37.6 
    ##  6 PDI    WT        sum_minus  def      21.9 
    ##  7 PDI    WT        cyto_plus  norm    465.  
    ##  8 PDI    WT        cyto_minus norm    479.  
    ##  9 PDI    WT        nuc_plus   norm    465.  
    ## 10 PDI    WT        nuc_minus  norm    497   
    ## # … with 26 more rows
…
