…
defects_counts
```

    ## # A tibble: 27 × 18
    ## # Groups:   screen, row, column, cell_line [27]
    ##    screen      row column cell_…¹ marker n_cells cyto_…² cyto_…³ nuc_p…⁴ nuc_m…⁵
    ##    <chr>     <dbl>  <dbl> <fct>   <chr>    <int>   <int>   <int>   <int>   <int>
    ##  1 180124-4…     5      2 WT      GRP78      786      60       4      46       0
    ##  2 180124-4…     6      2 WT      GRP78      738      54      34      52      32
    ##  3 180124-4…     7      2 WT      GRP78      512      30      22      50      16
    ##  4 180124-4…     5     12 HGPS1   GRP78      220      66       0      86       0
    ##  5 180124-4…     6     12 HGPS1   GRP78      368      94       2      56       2
    ##  6 180124-4…     7     12 HGPS1   GRP78      368      76       2      42       4
    ##  7 180124-4…     5     17 HGPS2   GRP78      490     128       0      60       6
    ##  8 180124-4…     6     17 HGPS2   GRP78      392     116       2      42       2
    ##  9 180124-4…     7     17 HGPS2   GRP78      422     114       2      74      14
    ## 10 180129-4…     5      2 WT      GRP78      370      27       6      31       5
    ## # … with 17 more rows, 8 more variables: sum_plus_def <int>,
    ## #   sum_minus_def <int>, cyto_plus_norm <int>, cyto_minus_norm <int>,
    ## #   nuc_plus_norm <int>, nuc_minus_norm <int>, sum_plus_norm <int>,
    ## #   sum_minus_norm <int>, and abbreviated variable names ¹​cell_line,
    ## #   ²​cyto_plus_def, ³​cyto_minus_def, ⁴​nuc_plus_def, ⁵​nuc_minus_def
…
``` r
defects_counts_long <- defects_counts %>%
  select(-n_cells) %>%
  group_by(marker, cell_line) %>%
  summarise(across(cyto_plus_def:sum_minus_norm, # Take the mean of all the wells in all the technical and biological replicates
              ~ mean(.x, na.rm = TRUE))) %>% 
  pivot_longer(cols = cyto_plus_def:sum_minus_norm,
               names_pattern = "(.*_.*)_(.*)",
               names_to = c("type", "quality"),
               values_to = "count")

defects_counts_long
```

    ## # A tibble: 36 × 5
    ## # Groups:   marker [1]
    ##    marker cell_line type       quality count
    ##    <chr>  <fct>     <chr>      <chr>   <dbl>
    ##  1 GRP78  WT        cyto_plus  def      42.2
    ##  2 GRP78  WT        cyto_minus def      22.3
    ##  3 GRP78  WT        nuc_plus   def      44  
    ##  4 GRP78  WT        nuc_minus  def      15.2
    ##  5 GRP78  WT        sum_plus   def      43.9
    ##  6 GRP78  WT        sum_minus  def      24.7
    ##  7 GRP78  WT        cyto_plus  norm    539. 
    ##  8 GRP78  WT        cyto_minus norm    558. 
    ##  9 GRP78  WT        nuc_plus   norm    537. 
    ## 10 GRP78  WT        nuc_minus  norm    566. 
    ## # … with 26 more rows
…
