…
defects_counts
```

    ## # A tibble: 162 × 18
    ## # Groups:   screen, row, column, cell_line [162]
    ##    screen      row column cell_…¹ marker n_cells cyto_…² cyto_…³ nuc_p…⁴ nuc_m…⁵
    ##    <chr>     <dbl>  <dbl> <fct>   <chr>    <int>   <int>   <int>   <int>   <int>
    ##  1 220303-4…     2      3 WT1     SUN1       149       0      26       0      32
    ##  2 220303-4…     3      3 WT1     SUN1       185       7       0      11       2
    ##  3 220303-4…     4      3 WT1     SUN1       178      16       0      24       0
    ##  4 220303-4…     2      5 WT2     SUN1       212       2       0       6       7
    ##  5 220303-4…     3      5 WT2     SUN1       178      23       0       9       1
    ##  6 220303-4…     4      5 WT2     SUN1       196      17       0      13       3
    ##  7 220303-4…     2      7 WT3     SUN1       178      15       0      11       2
    ##  8 220303-4…     3      7 WT3     SUN1       208      71       0      37       0
    ##  9 220303-4…     4      7 WT3     SUN1       225      13       0       6      13
    ## 10 220303-4…     2      9 WT4     SUN1       324       7       3      12      23
    ## # … with 152 more rows, 8 more variables: sum_plus_def <int>,
    ## #   sum_minus_def <int>, cyto_plus_norm <int>, cyto_minus_norm <int>,
    ## #   nuc_plus_norm <int>, nuc_minus_norm <int>, sum_plus_norm <int>,
    ## #   sum_minus_norm <int>, and abbreviated variable names ¹​cell_line,
    ## #   ²​cyto_plus_def, ³​cyto_minus_def, ⁴​nuc_plus_def, ⁵​nuc_minus_def
…
``` r
defects_counts_long <- defects_counts %>%
  select(-n_cells) %>%
  group_by(marker, cell_line) %>%
  summarise(across(cyto_plus_def:sum_minus_norm, # Take the mean of all the wells in all the technical and biological replicates
              ~ mean(.x, na.rm = TRUE))) %>% 
  pivot_longer(cols = cyto_plus_def:sum_minus_norm,
               names_pattern = "(.*_.*)_(.*)",
               names_to = c("type", "quality"),
               values_to = "count")

defects_counts_long
```

    ## # A tibble: 216 × 5
    ## # Groups:   marker [2]
    ##    marker cell_line type       quality  count
    ##    <chr>  <fct>     <chr>      <chr>    <dbl>
    ##  1 SUN1   WT1       cyto_plus  def      10.9 
    ##  2 SUN1   WT1       cyto_minus def       6.78
    ##  3 SUN1   WT1       nuc_plus   def      13.9 
    ##  4 SUN1   WT1       nuc_minus  def       7   
    ##  5 SUN1   WT1       sum_plus   def      12   
    ##  6 SUN1   WT1       sum_minus  def       8.33
    ##  7 SUN1   WT1       cyto_plus  norm    162.  
    ##  8 SUN1   WT1       cyto_minus norm    166.  
    ##  9 SUN1   WT1       nuc_plus   norm    159.  
    ## 10 SUN1   WT1       nuc_minus  norm    166.  
    ## # … with 206 more rows
…
