…
defects_counts
```

    ## # A tibble: 27 × 18
    ## # Groups:   screen, row, column, cell_line [27]
    ##    screen      row column cell_…¹ marker n_cells cyto_…² cyto_…³ nuc_p…⁴ nuc_m…⁵
    ##    <chr>     <dbl>  <dbl> <fct>   <chr>    <int>   <int>   <int>   <int>   <int>
    ##  1 180124-4…     8      2 WT      Calne…     310       6       7      12      13
    ##  2 180124-4…     9      2 WT      Calne…     303      32       4      36       7
    ##  3 180124-4…    10      2 WT      Calne…     395      39       4      26      21
    ##  4 180124-4…     8     12 HGPS1   Calne…     216      57       8      52       3
    ##  5 180124-4…     9     12 HGPS1   Calne…     171      17       4      43       7
    ##  6 180124-4…    10     12 HGPS1   Calne…     147      53       0      84       0
    ##  7 180124-4…     8     17 HGPS2   Calne…     222      18      24      37       7
    ##  8 180124-4…     9     17 HGPS2   Calne…     217      26      12      60       8
    ##  9 180124-4…    10     17 HGPS2   Calne…     231      69       2     134       0
    ## 10 180129-4…     8      2 WT      Calne…     387      22      20       6      25
    ## # … with 17 more rows, 8 more variables: sum_plus_def <int>,
    ## #   sum_minus_def <int>, cyto_plus_norm <int>, cyto_minus_norm <int>,
    ## #   nuc_plus_norm <int>, nuc_minus_norm <int>, sum_plus_norm <int>,
    ## #   sum_minus_norm <int>, and abbreviated variable names ¹​cell_line,
    ## #   ²​cyto_plus_def, ³​cyto_minus_def, ⁴​nuc_plus_def, ⁵​nuc_minus_def
…
``` r
defects_counts_long <- defects_counts %>%
  select(-n_cells) %>%
  group_by(marker, cell_line) %>%
  summarise(across(cyto_plus_def:sum_minus_norm, # Take the mean of all the wells in all the technical and biological replicates
              ~ mean(.x, na.rm = TRUE))) %>% 
  pivot_longer(cols = cyto_plus_def:sum_minus_norm,
               names_pattern = "(.*_.*)_(.*)",
               names_to = c("type", "quality"),
               values_to = "count")

defects_counts_long
```

    ## # A tibble: 36 × 5
    ## # Groups:   marker [1]
    ##    marker   cell_line type       quality  count
    ##    <chr>    <fct>     <chr>      <chr>    <dbl>
    ##  1 Calnexin WT        cyto_plus  def      18.6 
    ##  2 Calnexin WT        cyto_minus def       6.11
    ##  3 Calnexin WT        nuc_plus   def      16.4 
    ##  4 Calnexin WT        nuc_minus  def       8.67
    ##  5 Calnexin WT        sum_plus   def      17.6 
    ##  6 Calnexin WT        sum_minus  def       9.89
    ##  7 Calnexin WT        cyto_plus  norm    230.  
    ##  8 Calnexin WT        cyto_minus norm    243.  
    ##  9 Calnexin WT        nuc_plus   norm    232.  
    ## 10 Calnexin WT        nuc_minus  norm    240.  
    ## # … with 26 more rows
…
