…
defects_counts
```

    ## # A tibble: 27 × 18
    ## # Groups:   screen, row, column, cell_line [27]
    ##    screen      row column cell_…¹ marker n_cells cyto_…² cyto_…³ nuc_p…⁴ nuc_m…⁵
    ##    <chr>     <dbl>  <dbl> <fct>   <chr>    <int>   <int>   <int>   <int>   <int>
    ##  1 180124-4…     8      4 WT      SUN1       306      19      73      24      59
    ##  2 180124-4…     9      4 WT      SUN1       283      42      38      42      35
    ##  3 180124-4…    10      4 WT      SUN1       302      61      17      51      28
    ##  4 180124-4…     8     14 HGPS1   SUN1       150      31      12      88       2
    ##  5 180124-4…     9     14 HGPS1   SUN1       136      37       3      88       0
    ##  6 180124-4…    10     14 HGPS1   SUN1       212      99       1      98       2
    ##  7 180124-4…     8     19 HGPS2   SUN1       237      25      21     142       6
    ##  8 180124-4…     9     19 HGPS2   SUN1       242      46      34     116      14
    ##  9 180124-4…    10     19 HGPS2   SUN1       279      38      57     107      33
    ## 10 180129-4…     8      4 WT      SUN1       383      31      30      47      74
    ## # … with 17 more rows, 8 more variables: sum_plus_def <int>,
    ## #   sum_minus_def <int>, cyto_plus_norm <int>, cyto_minus_norm <int>,
    ## #   nuc_plus_norm <int>, nuc_minus_norm <int>, sum_plus_norm <int>,
    ## #   sum_minus_norm <int>, and abbreviated variable names ¹​cell_line,
    ## #   ²​cyto_plus_def, ³​cyto_minus_def, ⁴​nuc_plus_def, ⁵​nuc_minus_def
…
``` r
defects_counts_long <- defects_counts %>%
  select(-n_cells) %>%
  group_by(marker, cell_line) %>%
  summarise(across(cyto_plus_def:sum_minus_norm, # Take the mean of all the wells in all the technical and biological replicates
              ~ mean(.x, na.rm = TRUE))) %>% 
  pivot_longer(cols = cyto_plus_def:sum_minus_norm,
               names_pattern = "(.*_.*)_(.*)",
               names_to = c("type", "quality"),
               values_to = "count")

defects_counts_long
```

    ## # A tibble: 36 × 5
    ## # Groups:   marker [1]
    ##    marker cell_line type       quality count
    ##    <chr>  <fct>     <chr>      <chr>   <dbl>
    ##  1 SUN1   WT        cyto_plus  def      27.6
    ##  2 SUN1   WT        cyto_minus def      24.7
    ##  3 SUN1   WT        nuc_plus   def      31.7
    ##  4 SUN1   WT        nuc_minus  def      32.3
    ##  5 SUN1   WT        sum_plus   def      32  
    ##  6 SUN1   WT        sum_minus  def      31.6
    ##  7 SUN1   WT        cyto_plus  norm    207. 
    ##  8 SUN1   WT        cyto_minus norm    210  
    ##  9 SUN1   WT        nuc_plus   norm    203  
    ## 10 SUN1   WT        nuc_minus  norm    202. 
    ## # … with 26 more rows
…
