…
defects_counts
```

    ## # A tibble: 243 × 18
    ## # Groups:   screen, row, column, cell_line [243]
    ##    screen      row column cell_…¹ marker n_cells cyto_…² cyto_…³ nuc_p…⁴ nuc_m…⁵
    ##    <chr>     <dbl>  <dbl> <fct>   <chr>    <int>   <int>   <int>   <int>   <int>
    ##  1 220303-4…     5      2 WT1     GRP78      162       9       8      12       7
    ##  2 220303-4…     6      2 WT1     GRP78      169      13      10      15       2
    ##  3 220303-4…     7      2 WT1     GRP78      173      13       7      13       7
    ##  4 220303-4…     5      4 WT2     GRP78      195       7      12       8      16
    ##  5 220303-4…     6      4 WT2     GRP78      171      11       9      14      15
    ##  6 220303-4…     7      4 WT2     GRP78      209      14       9      11      23
    ##  7 220303-4…     5      6 WT3     GRP78      198      10      22       1      38
    ##  8 220303-4…     6      6 WT3     GRP78      178       2      32       5      44
    ##  9 220303-4…     7      6 WT3     GRP78      170       5      30       5      46
    ## 10 220303-4…     5      8 WT4     GRP78      338       1     130       1     224
    ## # … with 233 more rows, 8 more variables: sum_plus_def <int>,
    ## #   sum_minus_def <int>, cyto_plus_norm <int>, cyto_minus_norm <int>,
    ## #   nuc_plus_norm <int>, nuc_minus_norm <int>, sum_plus_norm <int>,
    ## #   sum_minus_norm <int>, and abbreviated variable names ¹​cell_line,
    ## #   ²​cyto_plus_def, ³​cyto_minus_def, ⁴​nuc_plus_def, ⁵​nuc_minus_def
…
``` r
defects_counts_long <- defects_counts %>%
  select(-n_cells) %>%
  group_by(marker, cell_line) %>%
  summarise(across(cyto_plus_def:sum_minus_norm, # Take the mean of all the wells in all the technical and biological replicates
              ~ mean(.x, na.rm = TRUE))) %>% 
  pivot_longer(cols = cyto_plus_def:sum_minus_norm,
               names_pattern = "(.*_.*)_(.*)",
               names_to = c("type", "quality"),
               values_to = "count")

defects_counts_long
```

    ## # A tibble: 324 × 5
    ## # Groups:   marker [3]
    ##    marker cell_line type       quality  count
    ##    <chr>  <fct>     <chr>      <chr>    <dbl>
    ##  1 GRP78  WT1       cyto_plus  def      12.3 
    ##  2 GRP78  WT1       cyto_minus def       6.56
    ##  3 GRP78  WT1       nuc_plus   def      12.2 
    ##  4 GRP78  WT1       nuc_minus  def       4.22
    ##  5 GRP78  WT1       sum_plus   def      12.1 
    ##  6 GRP78  WT1       sum_minus  def       7   
    ##  7 GRP78  WT1       cyto_plus  norm    158.  
    ##  8 GRP78  WT1       cyto_minus norm    163.  
    ##  9 GRP78  WT1       nuc_plus   norm    158.  
    ## 10 GRP78  WT1       nuc_minus  norm    166.  
    ## # … with 314 more rows
…
